nexys4/block_transform_tb.vcd
$date
	Wed Dec 13 01:48:16 2023
$end
$version
	Icarus Verilog
$end
$timescale
	1ps
$end
$scope module mac_transmit_tb $end
$scope module block_transformer $end
$var wire 1 ! clk $end
$var wire 1 " input_valid $end
$var wire 1 # rst $end
$var wire 1 $ ma_c_tvalid_pipe $end
$var wire 64 % ma_c_tdata_pipe [63:0] $end
$var wire 1 & ma_a_tvalid_pipe $end
$var wire 64 ' ma_a_tdata_pipe [63:0] $end
$var wire 2 ( debug_state [1:0] $end
$var wire 8 ) debug [7:0] $end
$var wire 1 * computing $end
$var reg 1 + curoot2 $end
$var reg 1 , cvroot2 $end
$var reg 3 - in_u [2:0] $end
$var reg 6 . in_uv [5:0] $end
$var reg 3 / in_v [2:0] $end
$var reg 3 0 in_x [2:0] $end
$var reg 6 1 in_xy [5:0] $end
$var reg 3 2 in_y [2:0] $end
$var reg 64 3 m_a_tdata [63:0] $end
$var reg 1 4 m_a_tready $end
$var reg 1 5 m_a_tvalid $end
$var reg 64 6 m_b_tdata [63:0] $end
$var reg 1 7 m_b_tready $end
$var reg 1 8 m_b_tvalid $end
$var reg 64 9 ma_a_tdata [63:0] $end
$var reg 1 : ma_a_tready $end
$var reg 1 ; ma_a_tvalid $end
$var reg 64 < ma_c_tdata [63:0] $end
$var reg 1 = ma_c_tready $end
$var reg 1 > ma_c_tvalid $end
$var reg 8 ? ma_operation_tdata [7:0] $end
$var reg 1 @ ma_operation_tvalid $end
$var reg 64 A ma_result_tdata [63:0] $end
$var reg 1 B ma_result_tready $end
$var reg 1 C ma_result_tvalid $end
$var reg 3 D out_u [2:0] $end
$var reg 6 E out_uv [5:0] $end
$var reg 3 F out_v [2:0] $end
$var reg 3 G out_x [2:0] $end
$var reg 6 H out_xy [5:0] $end
$var reg 3 I out_y [2:0] $end
$var reg 1 J output_valid $end
$var reg 6 K xu_addr [5:0] $end
$var reg 7 L xu_cos_table_addr [6:0] $end
$var reg 6 M yv_addr [5:0] $end
$var reg 7 N yv_cos_table_addr [6:0] $end
$var integer 32 O state [31:0] $end
$scope module d1 $end
$var wire 1 ! clk_in $end
$var wire 1 ; in $end
$var wire 1 & out $end
$scope begin $ivl_for_loop9 $end
$var integer 32 P i [31:0] $end
$upscope $end
$upscope $end
$scope module d2 $end
$var wire 1 ! clk_in $end
$var wire 64 Q in [63:0] $end
$var wire 64 R out [63:0] $end
$scope begin $ivl_for_loop9 $end
$var integer 32 S i [31:0] $end
$upscope $end
$upscope $end
$scope module d3 $end
$var wire 1 ! clk_in $end
$var wire 1 > in $end
$var wire 1 $ out $end
$scope begin $ivl_for_loop9 $end
$var integer 32 T i [31:0] $end
$upscope $end
$upscope $end
$scope module d4 $end
$var wire 1 ! clk_in $end
$var wire 64 U in [63:0] $end
$var wire 64 V out [63:0] $end
$scope begin $ivl_for_loop9 $end
$var integer 32 W i [31:0] $end
$upscope $end
$upscope $end
$scope begin $ivl_for_loop2 $end
$var integer 32 X root2 [31:0] $end
$scope begin $ivl_for_loop3 $end
$var integer 32 Y x [31:0] $end
$scope begin $ivl_for_loop4 $end
$var integer 32 Z u [31:0] $end
$upscope $end
$upscope $end
$upscope $end
$scope begin $ivl_for_loop5 $end
$var integer 32 [ i [31:0] $end
$scope begin $ivl_for_loop6 $end
$var integer 32 \ j [31:0] $end
$upscope $end
$upscope $end
$scope begin $ivl_for_loop7 $end
$var integer 32 ] i [31:0] $end
$scope begin $ivl_for_loop8 $end
$var integer 32 ^ j [31:0] $end
$upscope $end
$upscope $end
$upscope $end
$upscope $end
$enddefinitions $end
#0
$dumpvars
b0 ^
b0 ]
b0 \
b0 [
b1000 Z
b1000 Y
b1 X
b0 W
bx V
bx U
b0 T
b0 S
bx R
bx Q
b0 P
b0 O
bx N
bx M
bx L
bx K
xJ
bx I
bx H
bx G
bx F
bx E
bx D
1C
1B
bx A
1@
b0 ?
x>
1=
bx <
x;
1:
bx 9
x8
17
bx 6
x5
14
bx 3
bx 2
bx 1
bx 0
bx /
bx .
bx -
x,
x+
0*
b11xxxxxx )
b0 (
bx '
x&
bx %
x$
1#
0"
0!
$end
#5000
0J
08
05
0>
0;
b0 6
b0 3
b0 <
b0 U
b0 9
b0 Q
b0 E
b0 .
b11000000 )
b0 H
b0 1
b10000 W
b10000 T
b10000 S
b10000 P
1!
#10000
0!
#15000
b10000 W
b10000 T
b10000 S
b10000 P
1!
#20000
0!
#25000
b10000 W
b10000 T
b10000 S
b10000 P
1!
#30000
0!
#35000
b10000 W
b10000 T
b10000 S
b10000 P
1!
#40000
0!
#45000
b10000 W
b10000 T
b10000 S
b10000 P
1!
#50000
0!
#55000
b10000 W
b10000 T
b10000 S
b10000 P
1!
#60000
0!
#65000
b10000 W
b10000 T
b10000 S
b10000 P
1!
#70000
0!
#75000
b10000 W
b10000 T
b10000 S
b10000 P
1!
#80000
0!
#85000
b10000 W
b10000 T
b10000 S
b10000 P
1!
#90000
0!
#95000
b10000 W
b10000 T
b10000 S
b10000 P
1!
#100000
0!
1"
0#
#105000
b1 (
1*
b1 O
b10000 W
b10000 T
b10000 S
b10000 P
b1000 [
b1000 \
1!
#110000
0!
#115000
b1 E
b1 .
1>
1;
18
15
bx <
bx U
b0xxxxxxxxx 9
b0xxxxxxxxx Q
bx 6
bx 3
b10000 W
b10000 T
b10000 S
b10000 P
1!
#120000
0!
#125000
b10 E
b10 .
b10000 W
b10000 T
b10000 S
b10000 P
1!
#130000
0!
#135000
b11 E
b11 .
b10000 W
b10000 T
b10000 S
b10000 P
1!
#140000
0!
#145000
b100 E
b100 .
b10000 W
b10000 T
b10000 S
b10000 P
1!
#150000
0!
#155000
b101 E
b101 .
b10000 W
b10000 T
b10000 S
b10000 P
1!
#160000
0!
#165000
b0 %
b0 V
0$
b0 '
b0 R
0&
b110 E
b110 .
b10000 W
b10000 T
b10000 S
b10000 P
1!
#170000
0!
#175000
b111 E
b111 .
b10000 W
b10000 T
b10000 S
b10000 P
1!
#180000
0!
#185000
b1000 E
b1000 .
b10000 W
b10000 T
b10000 S
b10000 P
1!
#190000
0!
#195000
b1001 E
b1001 .
b10000 W
b10000 T
b10000 S
b10000 P
1!
#200000
0!
0"
#205000
b1010 E
b1010 .
b10000 W
b10000 T
b10000 S
b10000 P
1!
#210000
0!
#215000
b1011 E
b1011 .
b10000 W
b10000 T
b10000 S
b10000 P
1!
#220000
0!
#225000
b1100 E
b1100 .
b10000 W
b10000 T
b10000 S
b10000 P
1!
#230000
0!
#235000
b1101 E
b1101 .
b10000 W
b10000 T
b10000 S
b10000 P
1!
#240000
0!
#245000
b1110 E
b1110 .
b10000 W
b10000 T
b10000 S
b10000 P
1!
#250000
0!
#255000
b1111 E
b1111 .
b10000 W
b10000 T
b10000 S
b10000 P
1!
#260000
0!
#265000
b10000 E
b10000 .
b10000 W
b10000 T
b10000 S
b10000 P
1!
#270000
0!
#275000
bx %
bx V
1$
b0xxxxxxxxx '
b0xxxxxxxxx R
1&
b10001 E
b10001 .
b10000 W
b10000 T
b10000 S
b10000 P
1!
#280000
0!
#285000
b10010 E
b10010 .
b10000 W
b10000 T
b10000 S
b10000 P
1!
#290000
0!
#295000
b10011 E
b10011 .
b10000 W
b10000 T
b10000 S
b10000 P
1!
#300000
0!
#305000
b10100 E
b10100 .
b10000 W
b10000 T
b10000 S
b10000 P
1!
#310000
0!
#315000
b10101 E
b10101 .
b10000 W
b10000 T
b10000 S
b10000 P
1!
#320000
0!
#325000
b10110 E
b10110 .
b10000 W
b10000 T
b10000 S
b10000 P
1!
#330000
0!
#335000
b10111 E
b10111 .
b10000 W
b10000 T
b10000 S
b10000 P
1!
#340000
0!
#345000
b11000 E
b11000 .
b10000 W
b10000 T
b10000 S
b10000 P
1!
#350000
0!
#355000
b11001 E
b11001 .
b10000 W
b10000 T
b10000 S
b10000 P
1!
#360000
0!
#365000
b11010 E
b11010 .
b10000 W
b10000 T
b10000 S
b10000 P
1!
#370000
0!
#375000
b11011 E
b11011 .
b10000 W
b10000 T
b10000 S
b10000 P
1!
#380000
0!
#385000
b11100 E
b11100 .
b10000 W
b10000 T
b10000 S
b10000 P
1!
#390000
0!
#395000
b11101 E
b11101 .
b10000 W
b10000 T
b10000 S
b10000 P
1!
#400000
0!
#405000
b11110 E
b11110 .
b10000 W
b10000 T
b10000 S
b10000 P
1!
#410000
0!
#415000
b11111 E
b11111 .
b10000 W
b10000 T
b10000 S
b10000 P
1!
#420000
0!
#425000
b100000 E
b100000 .
b10000 W
b10000 T
b10000 S
b10000 P
1!
#430000
0!
#435000
b100001 E
b100001 .
b10000 W
b10000 T
b10000 S
b10000 P
1!
#440000
0!
#445000
b100010 E
b100010 .
b10000 W
b10000 T
b10000 S
b10000 P
1!
#450000
0!
#455000
b100011 E
b100011 .
b10000 W
b10000 T
b10000 S
b10000 P
1!
#460000
0!
#465000
b100100 E
b100100 .
b10000 W
b10000 T
b10000 S
b10000 P
1!
#470000
0!
#475000
b100101 E
b100101 .
b10000 W
b10000 T
b10000 S
b10000 P
1!
#480000
0!
#485000
b100110 E
b100110 .
b10000 W
b10000 T
b10000 S
b10000 P
1!
#490000
0!
#495000
b100111 E
b100111 .
b10000 W
b10000 T
b10000 S
b10000 P
1!
#500000
0!
#505000
b101000 E
b101000 .
b10000 W
b10000 T
b10000 S
b10000 P
1!
#510000
0!
#515000
b101001 E
b101001 .
b10000 W
b10000 T
b10000 S
b10000 P
1!
#520000
0!
#525000
b101010 E
b101010 .
b10000 W
b10000 T
b10000 S
b10000 P
1!
#530000
0!
#535000
b101011 E
b101011 .
b10000 W
b10000 T
b10000 S
b10000 P
1!
#540000
0!
#545000
b101100 E
b101100 .
b10000 W
b10000 T
b10000 S
b10000 P
1!
#550000
0!
#555000
b101101 E
b101101 .
b10000 W
b10000 T
b10000 S
b10000 P
1!
#560000
0!
#565000
b101110 E
b101110 .
b10000 W
b10000 T
b10000 S
b10000 P
1!
#570000
0!
#575000
b101111 E
b101111 .
b10000 W
b10000 T
b10000 S
b10000 P
1!
#580000
0!
#585000
b110000 E
b110000 .
b10000 W
b10000 T
b10000 S
b10000 P
1!
#590000
0!
#595000
b110001 E
b110001 .
b10000 W
b10000 T
b10000 S
b10000 P
1!
#600000
0!
#605000
b110010 E
b110010 .
b10000 W
b10000 T
b10000 S
b10000 P
1!
#610000
0!
#615000
b110011 E
b110011 .
b10000 W
b10000 T
b10000 S
b10000 P
1!
#620000
0!
#625000
b110100 E
b110100 .
b10000 W
b10000 T
b10000 S
b10000 P
1!
#630000
0!
#635000
b110101 E
b110101 .
b10000 W
b10000 T
b10000 S
b10000 P
1!
#640000
0!
#645000
b110110 E
b110110 .
b10000 W
b10000 T
b10000 S
b10000 P
1!
#650000
0!
#655000
b110111 E
b110111 .
b10000 W
b10000 T
b10000 S
b10000 P
1!
#660000
0!
#665000
b111000 E
b111000 .
b10000 W
b10000 T
b10000 S
b10000 P
1!
#670000
0!
#675000
b111001 E
b111001 .
b10000 W
b10000 T
b10000 S
b10000 P
1!
#680000
0!
#685000
b111010 E
b111010 .
b10000 W
b10000 T
b10000 S
b10000 P
1!
#690000
0!
#695000
b111011 E
b111011 .
b10000 W
b10000 T
b10000 S
b10000 P
1!
#700000
0!
#705000
b111100 E
b111100 .
b10000 W
b10000 T
b10000 S
b10000 P
1!
#710000
0!
#715000
b111101 E
b111101 .
b10000 W
b10000 T
b10000 S
b10000 P
1!
#720000
0!
#725000
b111110 E
b111110 .
b10000 W
b10000 T
b10000 S
b10000 P
1!
#730000
0!
#735000
b111111 E
b111111 .
b10000 W
b10000 T
b10000 S
b10000 P
1!
#740000
0!
#745000
b11000001 )
b1 H
b0 E
b1 1
b0 .
b10000 W
b10000 T
b10000 S
b10000 P
1!
#750000
0!
#755000
b1 E
b1 .
b10000 W
b10000 T
b10000 S
b10000 P
1!
#760000
0!
#765000
b10 E
b10 .
b10000 W
b10000 T
b10000 S
b10000 P
1!
#770000
0!
#775000
b11 E
b11 .
b10000 W
b10000 T
b10000 S
b10000 P
1!
#780000
0!
#785000
b100 E
b100 .
b10000 W
b10000 T
b10000 S
b10000 P
1!
#790000
0!
#795000
b101 E
b101 .
b10000 W
b10000 T
b10000 S
b10000 P
1!
#800000
0!
#805000
b110 E
b110 .
b10000 W
b10000 T
b10000 S
b10000 P
1!
#810000
0!
#815000
b111 E
b111 .
b10000 W
b10000 T
b10000 S
b10000 P
1!
#820000
0!
#825000
b1000 E
b1000 .
b10000 W
b10000 T
b10000 S
b10000 P
1!
#830000
0!
#835000
b1001 E
b1001 .
b10000 W
b10000 T
b10000 S
b10000 P
1!
#840000
0!
#845000
b1010 E
b1010 .
b10000 W
b10000 T
b10000 S
b10000 P
1!
#850000
0!
#855000
b1011 E
b1011 .
b10000 W
b10000 T
b10000 S
b10000 P
1!
#860000
0!
#865000
b1100 E
b1100 .
b10000 W
b10000 T
b10000 S
b10000 P
1!
#870000
0!
#875000
b1101 E
b1101 .
b10000 W
b10000 T
b10000 S
b10000 P
1!
#880000
0!
#885000
b1110 E
b1110 .
b10000 W
b10000 T
b10000 S
b10000 P
1!
#890000
0!
#895000
b1111 E
b1111 .
b10000 W
b10000 T
b10000 S
b10000 P
1!
#900000
0!
#905000
b10000 E
b10000 .
b10000 W
b10000 T
b10000 S
b10000 P
1!
#910000
0!
#915000
b10001 E
b10001 .
b10000 W
b10000 T
b10000 S
b10000 P
1!
#920000
0!
#925000
b10010 E
b10010 .
b10000 W
b10000 T
b10000 S
b10000 P
1!
#930000
0!
#935000
b10011 E
b10011 .
b10000 W
b10000 T
b10000 S
b10000 P
1!
#940000
0!
#945000
b10100 E
b10100 .
b10000 W
b10000 T
b10000 S
b10000 P
1!
#950000
0!
#955000
b10101 E
b10101 .
b10000 W
b10000 T
b10000 S
b10000 P
1!
#960000
0!
#965000
b10110 E
b10110 .
b10000 W
b10000 T
b10000 S
b10000 P
1!
#970000
0!
#975000
b10111 E
b10111 .
b10000 W
b10000 T
b10000 S
b10000 P
1!
#980000
0!
#985000
b11000 E
b11000 .
b10000 W
b10000 T
b10000 S
b10000 P
1!
#990000
0!
#995000
b11001 E
b11001 .
b10000 W
b10000 T
b10000 S
b10000 P
1!
#1000000
0!
#1005000
b11010 E
b11010 .
b10000 W
b10000 T
b10000 S
b10000 P
1!
#1010000
0!
#1015000
b11011 E
b11011 .
b10000 W
b10000 T
b10000 S
b10000 P
1!
#1020000
0!
#1025000
b11100 E
b11100 .
b10000 W
b10000 T
b10000 S
b10000 P
1!
#1030000
0!
#1035000
b11101 E
b11101 .
b10000 W
b10000 T
b10000 S
b10000 P
1!
#1040000
0!
#1045000
b11110 E
b11110 .
b10000 W
b10000 T
b10000 S
b10000 P
1!
#1050000
0!
#1055000
b11111 E
b11111 .
b10000 W
b10000 T
b10000 S
b10000 P
1!
#1060000
0!
#1065000
b100000 E
b100000 .
b10000 W
b10000 T
b10000 S
b10000 P
1!
#1070000
0!
#1075000
b100001 E
b100001 .
b10000 W
b10000 T
b10000 S
b10000 P
1!
#1080000
0!
#1085000
b100010 E
b100010 .
b10000 W
b10000 T
b10000 S
b10000 P
1!
#1090000
0!
#1095000
b100011 E
b100011 .
b10000 W
b10000 T
b10000 S
b10000 P
1!
#1100000
0!
#1105000
b100100 E
b100100 .
b10000 W
b10000 T
b10000 S
b10000 P
1!
#1110000
0!
#1115000
b100101 E
b100101 .
b10000 W
b10000 T
b10000 S
b10000 P
1!
#1120000
0!
#1125000
b100110 E
b100110 .
b10000 W
b10000 T
b10000 S
b10000 P
1!
#1130000
0!
#1135000
b100111 E
b100111 .
b10000 W
b10000 T
b10000 S
b10000 P
1!
#1140000
0!
#1145000
b101000 E
b101000 .
b10000 W
b10000 T
b10000 S
b10000 P
1!
#1150000
0!
#1155000
b101001 E
b101001 .
b10000 W
b10000 T
b10000 S
b10000 P
1!
#1160000
0!
#1165000
b101010 E
b101010 .
b10000 W
b10000 T
b10000 S
b10000 P
1!
#1170000
0!
#1175000
b101011 E
b101011 .
b10000 W
b10000 T
b10000 S
b10000 P
1!
#1180000
0!
#1185000
b101100 E
b101100 .
b10000 W
b10000 T
b10000 S
b10000 P
1!
#1190000
0!
#1195000
b101101 E
b101101 .
b10000 W
b10000 T
b10000 S
b10000 P
1!
#1200000
0!
#1205000
b101110 E
b101110 .
b10000 W
b10000 T
b10000 S
b10000 P
1!
#1210000
0!
#1215000
b101111 E
b101111 .
b10000 W
b10000 T
b10000 S
b10000 P
1!
#1220000
0!
#1225000
b110000 E
b110000 .
b10000 W
b10000 T
b10000 S
b10000 P
1!
#1230000
0!
#1235000
b110001 E
b110001 .
b10000 W
b10000 T
b10000 S
b10000 P
1!
#1240000
0!
#1245000
b110010 E
b110010 .
b10000 W
b10000 T
b10000 S
b10000 P
1!
#1250000
0!
#1255000
b110011 E
b110011 .
b10000 W
b10000 T
b10000 S
b10000 P
1!
#1260000
0!
#1265000
b110100 E
b110100 .
b10000 W
b10000 T
b10000 S
b10000 P
1!
#1270000
0!
#1275000
b110101 E
b110101 .
b10000 W
b10000 T
b10000 S
b10000 P
1!
#1280000
0!
#1285000
b110110 E
b110110 .
b10000 W
b10000 T
b10000 S
b10000 P
1!
#1290000
0!
#1295000
b110111 E
b110111 .
b10000 W
b10000 T
b10000 S
b10000 P
1!
#1300000
0!
#1305000
b111000 E
b111000 .
b10000 W
b10000 T
b10000 S
b10000 P
1!
#1310000
0!
#1315000
b111001 E
b111001 .
b10000 W
b10000 T
b10000 S
b10000 P
1!
#1320000
0!
#1325000
b111010 E
b111010 .
b10000 W
b10000 T
b10000 S
b10000 P
1!
#1330000
0!
#1335000
b111011 E
b111011 .
b10000 W
b10000 T
b10000 S
b10000 P
1!
#1340000
0!
#1345000
b111100 E
b111100 .
b10000 W
b10000 T
b10000 S
b10000 P
1!
#1350000
0!
#1355000
b111101 E
b111101 .
b10000 W
b10000 T
b10000 S
b10000 P
1!
#1360000
0!
#1365000
b111110 E
b111110 .
b10000 W
b10000 T
b10000 S
b10000 P
1!
#1370000
0!
#1375000
b111111 E
b111111 .
b10000 W
b10000 T
b10000 S
b10000 P
1!
#1380000
0!
#1385000
b11000010 )
b10 H
b0 E
b10 1
b0 .
b10000 W
b10000 T
b10000 S
b10000 P
1!
#1390000
0!
#1395000
b1 E
b1 .
b10000 W
b10000 T
b10000 S
b10000 P
1!
#1400000
0!
#1405000
b10 E
b10 .
b10000 W
b10000 T
b10000 S
b10000 P
1!
#1410000
0!
#1415000
b11 E
b11 .
b10000 W
b10000 T
b10000 S
b10000 P
1!
#1420000
0!
#1425000
b100 E
b100 .
b10000 W
b10000 T
b10000 S
b10000 P
1!
#1430000
0!
#1435000
b101 E
b101 .
b10000 W
b10000 T
b10000 S
b10000 P
1!
#1440000
0!
#1445000
b110 E
b110 .
b10000 W
b10000 T
b10000 S
b10000 P
1!
#1450000
0!
#1455000
b111 E
b111 .
b10000 W
b10000 T
b10000 S
b10000 P
1!
#1460000
0!
#1465000
b1000 E
b1000 .
b10000 W
b10000 T
b10000 S
b10000 P
1!
#1470000
0!
#1475000
b1001 E
b1001 .
b10000 W
b10000 T
b10000 S
b10000 P
1!
#1480000
0!
#1485000
b1010 E
b1010 .
b10000 W
b10000 T
b10000 S
b10000 P
1!
#1490000
0!
#1495000
b1011 E
b1011 .
b10000 W
b10000 T
b10000 S
b10000 P
1!
#1500000
0!
#1505000
b1100 E
b1100 .
b10000 W
b10000 T
b10000 S
b10000 P
1!
#1510000
0!
#1515000
b1101 E
b1101 .
b10000 W
b10000 T
b10000 S
b10000 P
1!
#1520000
0!
#1525000
b1110 E
b1110 .
b10000 W
b10000 T
b10000 S
b10000 P
1!
#1530000
0!
#1535000
b1111 E
b1111 .
b10000 W
b10000 T
b10000 S
b10000 P
1!
#1540000
0!
#1545000
b10000 E
b10000 .
b10000 W
b10000 T
b10000 S
b10000 P
1!
#1550000
0!
#1555000
b10001 E
b10001 .
b10000 W
b10000 T
b10000 S
b10000 P
1!
#1560000
0!
#1565000
b10010 E
b10010 .
b10000 W
b10000 T
b10000 S
b10000 P
1!
#1570000
0!
#1575000
b10011 E
b10011 .
b10000 W
b10000 T
b10000 S
b10000 P
1!
#1580000
0!
#1585000
b10100 E
b10100 .
b10000 W
b10000 T
b10000 S
b10000 P
1!
#1590000
0!
#1595000
b10101 E
b10101 .
b10000 W
b10000 T
b10000 S
b10000 P
1!
#1600000
0!
#1605000
b10110 E
b10110 .
b10000 W
b10000 T
b10000 S
b10000 P
1!
#1610000
0!
#1615000
b10111 E
b10111 .
b10000 W
b10000 T
b10000 S
b10000 P
1!
#1620000
0!
#1625000
b11000 E
b11000 .
b10000 W
b10000 T
b10000 S
b10000 P
1!
#1630000
0!
#1635000
b11001 E
b11001 .
b10000 W
b10000 T
b10000 S
b10000 P
1!
#1640000
0!
#1645000
b11010 E
b11010 .
b10000 W
b10000 T
b10000 S
b10000 P
1!
#1650000
0!
#1655000
b11011 E
b11011 .
b10000 W
b10000 T
b10000 S
b10000 P
1!
#1660000
0!
#1665000
b11100 E
b11100 .
b10000 W
b10000 T
b10000 S
b10000 P
1!
#1670000
0!
#1675000
b11101 E
b11101 .
b10000 W
b10000 T
b10000 S
b10000 P
1!
#1680000
0!
#1685000
b11110 E
b11110 .
b10000 W
b10000 T
b10000 S
b10000 P
1!
#1690000
0!
#1695000
b11111 E
b11111 .
b10000 W
b10000 T
b10000 S
b10000 P
1!
#1700000
0!
#1705000
b100000 E
b100000 .
b10000 W
b10000 T
b10000 S
b10000 P
1!
#1710000
0!
#1715000
b100001 E
b100001 .
b10000 W
b10000 T
b10000 S
b10000 P
1!
#1720000
0!
#1725000
b100010 E
b100010 .
b10000 W
b10000 T
b10000 S
b10000 P
1!
#1730000
0!
#1735000
b100011 E
b100011 .
b10000 W
b10000 T
b10000 S
b10000 P
1!
#1740000
0!
#1745000
b100100 E
b100100 .
b10000 W
b10000 T
b10000 S
b10000 P
1!
#1750000
0!
#1755000
b100101 E
b100101 .
b10000 W
b10000 T
b10000 S
b10000 P
1!
#1760000
0!
#1765000
b100110 E
b100110 .
b10000 W
b10000 T
b10000 S
b10000 P
1!
#1770000
0!
#1775000
b100111 E
b100111 .
b10000 W
b10000 T
b10000 S
b10000 P
1!
#1780000
0!
#1785000
b101000 E
b101000 .
b10000 W
b10000 T
b10000 S
b10000 P
1!
#1790000
0!
#1795000
b101001 E
b101001 .
b10000 W
b10000 T
b10000 S
b10000 P
1!
#1800000
0!
#1805000
b101010 E
b101010 .
b10000 W
b10000 T
b10000 S
b10000 P
1!
#1810000
0!
#1815000
b101011 E
b101011 .
b10000 W
b10000 T
b10000 S
b10000 P
1!
#1820000
0!
#1825000
b101100 E
b101100 .
b10000 W
b10000 T
b10000 S
b10000 P
1!
#1830000
0!
#1835000
b101101 E
b101101 .
b10000 W
b10000 T
b10000 S
b10000 P
1!
#1840000
0!
#1845000
b101110 E
b101110 .
b10000 W
b10000 T
b10000 S
b10000 P
1!
#1850000
0!
#1855000
b101111 E
b101111 .
b10000 W
b10000 T
b10000 S
b10000 P
1!
#1860000
0!
#1865000
b110000 E
b110000 .
b10000 W
b10000 T
b10000 S
b10000 P
1!
#1870000
0!
#1875000
b110001 E
b110001 .
b10000 W
b10000 T
b10000 S
b10000 P
1!
#1880000
0!
#1885000
b110010 E
b110010 .
b10000 W
b10000 T
b10000 S
b10000 P
1!
#1890000
0!
#1895000
b110011 E
b110011 .
b10000 W
b10000 T
b10000 S
b10000 P
1!
#1900000
0!
#1905000
b110100 E
b110100 .
b10000 W
b10000 T
b10000 S
b10000 P
1!
#1910000
0!
#1915000
b110101 E
b110101 .
b10000 W
b10000 T
b10000 S
b10000 P
1!
#1920000
0!
#1925000
b110110 E
b110110 .
b10000 W
b10000 T
b10000 S
b10000 P
1!
#1930000
0!
#1935000
b110111 E
b110111 .
b10000 W
b10000 T
b10000 S
b10000 P
1!
#1940000
0!
#1945000
b111000 E
b111000 .
b10000 W
b10000 T
b10000 S
b10000 P
1!
#1950000
0!
#1955000
b111001 E
b111001 .
b10000 W
b10000 T
b10000 S
b10000 P
1!
#1960000
0!
#1965000
b111010 E
b111010 .
b10000 W
b10000 T
b10000 S
b10000 P
1!
#1970000
0!
#1975000
b111011 E
b111011 .
b10000 W
b10000 T
b10000 S
b10000 P
1!
#1980000
0!
#1985000
b111100 E
b111100 .
b10000 W
b10000 T
b10000 S
b10000 P
1!
#1990000
0!
#1995000
b111101 E
b111101 .
b10000 W
b10000 T
b10000 S
b10000 P
1!
#2000000
0!
#2005000
b111110 E
b111110 .
b10000 W
b10000 T
b10000 S
b10000 P
1!
#2010000
0!
#2015000
b111111 E
b111111 .
b10000 W
b10000 T
b10000 S
b10000 P
1!
#2020000
0!
#2025000
b11000011 )
b11 H
b0 E
b11 1
b0 .
b10000 W
b10000 T
b10000 S
b10000 P
1!
#2030000
0!
#2035000
b1 E
b1 .
b10000 W
b10000 T
b10000 S
b10000 P
1!
#2040000
0!
#2045000
b10 E
b10 .
b10000 W
b10000 T
b10000 S
b10000 P
1!
#2050000
0!
#2055000
b11 E
b11 .
b10000 W
b10000 T
b10000 S
b10000 P
1!
#2060000
0!
#2065000
b100 E
b100 .
b10000 W
b10000 T
b10000 S
b10000 P
1!
#2070000
0!
#2075000
b101 E
b101 .
b10000 W
b10000 T
b10000 S
b10000 P
1!
#2080000
0!
#2085000
b110 E
b110 .
b10000 W
b10000 T
b10000 S
b10000 P
1!
#2090000
0!
#2095000
b111 E
b111 .
b10000 W
b10000 T
b10000 S
b10000 P
1!
#2100000
0!
#2105000
b1000 E
b1000 .
b10000 W
b10000 T
b10000 S
b10000 P
1!
#2110000
0!
#2115000
b1001 E
b1001 .
b10000 W
b10000 T
b10000 S
b10000 P
1!
#2120000
0!
#2125000
b1010 E
b1010 .
b10000 W
b10000 T
b10000 S
b10000 P
1!
#2130000
0!
#2135000
b1011 E
b1011 .
b10000 W
b10000 T
b10000 S
b10000 P
1!
#2140000
0!
#2145000
b1100 E
b1100 .
b10000 W
b10000 T
b10000 S
b10000 P
1!
#2150000
0!
#2155000
b1101 E
b1101 .
b10000 W
b10000 T
b10000 S
b10000 P
1!
#2160000
0!
#2165000
b1110 E
b1110 .
b10000 W
b10000 T
b10000 S
b10000 P
1!
#2170000
0!
#2175000
b1111 E
b1111 .
b10000 W
b10000 T
b10000 S
b10000 P
1!
#2180000
0!
#2185000
b10000 E
b10000 .
b10000 W
b10000 T
b10000 S
b10000 P
1!
#2190000
0!
#2195000
b10001 E
b10001 .
b10000 W
b10000 T
b10000 S
b10000 P
1!
#2200000
0!
#2205000
b10010 E
b10010 .
b10000 W
b10000 T
b10000 S
b10000 P
1!
#2210000
0!
#2215000
b10011 E
b10011 .
b10000 W
b10000 T
b10000 S
b10000 P
1!
#2220000
0!
#2225000
b10100 E
b10100 .
b10000 W
b10000 T
b10000 S
b10000 P
1!
#2230000
0!
#2235000
b10101 E
b10101 .
b10000 W
b10000 T
b10000 S
b10000 P
1!
#2240000
0!
#2245000
b10110 E
b10110 .
b10000 W
b10000 T
b10000 S
b10000 P
1!
#2250000
0!
#2255000
b10111 E
b10111 .
b10000 W
b10000 T
b10000 S
b10000 P
1!
#2260000
0!
#2265000
b11000 E
b11000 .
b10000 W
b10000 T
b10000 S
b10000 P
1!
#2270000
0!
#2275000
b11001 E
b11001 .
b10000 W
b10000 T
b10000 S
b10000 P
1!
#2280000
0!
#2285000
b11010 E
b11010 .
b10000 W
b10000 T
b10000 S
b10000 P
1!
#2290000
0!
#2295000
b11011 E
b11011 .
b10000 W
b10000 T
b10000 S
b10000 P
1!
#2300000
0!
#2305000
b11100 E
b11100 .
b10000 W
b10000 T
b10000 S
b10000 P
1!
#2310000
0!
#2315000
b11101 E
b11101 .
b10000 W
b10000 T
b10000 S
b10000 P
1!
#2320000
0!
#2325000
b11110 E
b11110 .
b10000 W
b10000 T
b10000 S
b10000 P
1!
#2330000
0!
#2335000
b11111 E
b11111 .
b10000 W
b10000 T
b10000 S
b10000 P
1!
#2340000
0!
#2345000
b100000 E
b100000 .
b10000 W
b10000 T
b10000 S
b10000 P
1!
#2350000
0!
#2355000
b100001 E
b100001 .
b10000 W
b10000 T
b10000 S
b10000 P
1!
#2360000
0!
#2365000
b100010 E
b100010 .
b10000 W
b10000 T
b10000 S
b10000 P
1!
#2370000
0!
#2375000
b100011 E
b100011 .
b10000 W
b10000 T
b10000 S
b10000 P
1!
#2380000
0!
#2385000
b100100 E
b100100 .
b10000 W
b10000 T
b10000 S
b10000 P
1!
#2390000
0!
#2395000
b100101 E
b100101 .
b10000 W
b10000 T
b10000 S
b10000 P
1!
#2400000
0!
#2405000
b100110 E
b100110 .
b10000 W
b10000 T
b10000 S
b10000 P
1!
#2410000
0!
#2415000
b100111 E
b100111 .
b10000 W
b10000 T
b10000 S
b10000 P
1!
#2420000
0!
#2425000
b101000 E
b101000 .
b10000 W
b10000 T
b10000 S
b10000 P
1!
#2430000
0!
#2435000
b101001 E
b101001 .
b10000 W
b10000 T
b10000 S
b10000 P
1!
#2440000
0!
#2445000
b101010 E
b101010 .
b10000 W
b10000 T
b10000 S
b10000 P
1!
#2450000
0!
#2455000
b101011 E
b101011 .
b10000 W
b10000 T
b10000 S
b10000 P
1!
#2460000
0!
#2465000
b101100 E
b101100 .
b10000 W
b10000 T
b10000 S
b10000 P
1!
#2470000
0!
#2475000
b101101 E
b101101 .
b10000 W
b10000 T
b10000 S
b10000 P
1!
#2480000
0!
#2485000
b101110 E
b101110 .
b10000 W
b10000 T
b10000 S
b10000 P
1!
#2490000
0!
#2495000
b101111 E
b101111 .
b10000 W
b10000 T
b10000 S
b10000 P
1!
#2500000
0!
