fp-3D/ip_tb/ip_tb.sim/sim_1/behav/xsim/triangle.vcd
$date
   Thu Dec 14 15:34:48 2023
$end
$version
  2023.1
$end
$timescale
  1ps
$end
$scope module threegen_tb $end
$var reg 32 ! vertex_x [31:0] $end
$var reg 32 " vertex_y [31:0] $end
$var reg 32 # vertex_z [31:0] $end
$var reg 24 $ color [23:0] $end
$var reg 21 % player1 [20:0] $end
$var reg 21 & player2 [20:0] $end
$var reg 21 ' bullet1 [20:0] $end
$var reg 21 ( bullet2 [20:0] $end
$var reg 1 ) data_valid_in $end
$var reg 1 * data_valid_out $end
$var reg 1 + last_out $end
$var reg 1 , clk_in $end
$var reg 1 - sys_rst $end
$scope module uut $end
$var wire 1 . clk_in $end
$var wire 1 / rst_in $end
$var wire 1 0 valid_in $end
$var wire 21 1 player1 [20:0] $end
$var wire 21 2 player2 [20:0] $end
$var wire 21 3 bullet1 [20:0] $end
$var wire 21 4 bullet2 [20:0] $end
$var reg 1 * valid_out $end
$var reg 32 ! triangle_x [31:0] $end
$var reg 32 " triangle_y [31:0] $end
$var reg 32 # triangle_z [31:0] $end
$var reg 24 $ color [23:0] $end
$var reg 1 + last_out $end
$scope module triangle_gen $end
$var wire 1 . clk_in $end
$var wire 1 / rst_in $end
$var wire 1 0 valid_in $end
$var reg 1 * valid_out $end
$var reg 32 ! triangle_x [31:0] $end
$var reg 32 " triangle_y [31:0] $end
$var reg 32 # triangle_z [31:0] $end
$var reg 24 $ color [23:0] $end
$var reg 1 + t_last_out $end
$var reg 4 5 triangle_addr [3:0] $end
$var reg 288 6 vertices [287:0] $end
$var reg 32 7 fsm_state $end
$var reg 288 8 bul_vertices [287:0] $end
$var reg 1 9 converted $end
$var reg 24 : color_search [23:0] $end
$var reg 1 ; clookup [0:0] $end
$var reg 1 < player_ix [0:0] $end
$var reg 1 = tr_valid $end
$var reg 32 > trx_data [31:0] $end
$var reg 32 ? trx_vx_data [31:0] $end
$var reg 1 @ trx_out_valid $end
$var reg 1 A tx_last $end
$var reg 32 B try_data [31:0] $end
$var reg 32 C try_vy_data [31:0] $end
$var reg 32 D try_vz_data [31:0] $end
$var reg 1 E try_out_valid $end
$var reg 1 F ty_last $end
$var reg 1 G is_read $end
$var reg 3 H stage_check [2:0] $end
$var reg 1 I is_bullet $end
$var reg 1 J calculating $end
$var reg 1 K last_out $end
$scope module player_BROM $end
$var wire 4 L addra [3:0] $end
$var wire 288 M dina [287:0] $end
$var wire 1 . clka $end
$var wire 1 N wea $end
$var wire 1 O ena $end
$var wire 1 / rsta $end
$var wire 1 P regcea $end
$var wire 288 Q douta [287:0] $end
$var reg 288 R ram_data [287:0] $end
$var reg 288 S \output_register.douta_reg  [287:0] $end
$upscope $end
$scope module bullet_BROM $end
$var wire 4 T addra [3:0] $end
$var wire 288 U dina [287:0] $end
$var wire 1 . clka $end
$var wire 1 V wea $end
$var wire 1 W ena $end
$var wire 1 / rsta $end
$var wire 1 X regcea $end
$var wire 288 Y douta [287:0] $end
$var reg 288 Z ram_data [287:0] $end
$var reg 288 [ \output_register.douta_reg  [287:0] $end
$upscope $end
$scope module convert $end
$var wire 1 . clk_in $end
$var wire 1 0 valid_in $end
$var reg 1 9 valid_out $end
$var reg 4 \ all_done [3:0] $end
$var reg 11 ] \convert[0].x_in  [10:0] $end
$var reg 32 ^ \convert[0].float_x  [31:0] $end
$var reg 1 _ \convert[0].fx_ready  $end
$var reg 1 ` \convert[0].fx_valid  $end
$var reg 10 a \convert[0].y_in  [9:0] $end
$var reg 32 b \convert[0].float_y  [31:0] $end
$var reg 1 c \convert[0].fy_ready  $end
$var reg 1 d \convert[0].fy_valid  $end
$var reg 11 e \convert[1].x_in  [10:0] $end
$var reg 32 f \convert[1].float_x  [31:0] $end
$var reg 1 g \convert[1].fx_ready  $end
$var reg 1 h \convert[1].fx_valid  $end
$var reg 10 i \convert[1].y_in  [9:0] $end
$var reg 32 j \convert[1].float_y  [31:0] $end
$var reg 1 k \convert[1].fy_ready  $end
$var reg 1 l \convert[1].fy_valid  $end
$var reg 11 m \convert[2].x_in  [10:0] $end
$var reg 32 n \convert[2].float_x  [31:0] $end
$var reg 1 o \convert[2].fx_ready  $end
$var reg 1 p \convert[2].fx_valid  $end
$var reg 10 q \convert[2].y_in  [9:0] $end
$var reg 32 r \convert[2].float_y  [31:0] $end
$var reg 1 s \convert[2].fy_ready  $end
$var reg 1 t \convert[2].fy_valid  $end
$var reg 11 u \convert[3].x_in  [10:0] $end
$var reg 32 v \convert[3].float_x  [31:0] $end
$var reg 1 w \convert[3].fx_ready  $end
$var reg 1 x \convert[3].fx_valid  $end
$var reg 10 y \convert[3].y_in  [9:0] $end
$var reg 32 z \convert[3].float_y  [31:0] $end
$var reg 1 { \convert[3].fy_ready  $end
$var reg 1 | \convert[3].fy_valid  $end
$scope module convert[0].convertx $end
$var wire 1 . aclk $end
$var wire 1 0 s_axis_a_tvalid $end
$var wire 1 } s_axis_a_tready $end
$var wire 32 ~ s_axis_a_tdata [31:0] $end
$var wire 1 !! m_axis_result_tvalid $end
$var wire 1 "! m_axis_result_tready $end
$var wire 32 #! m_axis_result_tdata [31:0] $end
$upscope $end
$scope module convert[0].converty $end
$var wire 1 . aclk $end
$var wire 1 0 s_axis_a_tvalid $end
$var wire 1 $! s_axis_a_tready $end
$var wire 32 %! s_axis_a_tdata [31:0] $end
$var wire 1 &! m_axis_result_tvalid $end
$var wire 1 '! m_axis_result_tready $end
$var wire 32 (! m_axis_result_tdata [31:0] $end
$upscope $end
$scope module convert[1].convertx $end
$var wire 1 . aclk $end
$var wire 1 0 s_axis_a_tvalid $end
$var wire 1 )! s_axis_a_tready $end
$var wire 32 *! s_axis_a_tdata [31:0] $end
$var wire 1 +! m_axis_result_tvalid $end
$var wire 1 ,! m_axis_result_tready $end
$var wire 32 -! m_axis_result_tdata [31:0] $end
$upscope $end
$scope module convert[1].converty $end
$var wire 1 . aclk $end
$var wire 1 0 s_axis_a_tvalid $end
$var wire 1 .! s_axis_a_tready $end
$var wire 32 /! s_axis_a_tdata [31:0] $end
$var wire 1 0! m_axis_result_tvalid $end
$var wire 1 1! m_axis_result_tready $end
$var wire 32 2! m_axis_result_tdata [31:0] $end
$upscope $end
$scope module convert[2].convertx $end
$var wire 1 . aclk $end
$var wire 1 0 s_axis_a_tvalid $end
$var wire 1 3! s_axis_a_tready $end
$var wire 32 4! s_axis_a_tdata [31:0] $end
$var wire 1 5! m_axis_result_tvalid $end
$var wire 1 6! m_axis_result_tready $end
$var wire 32 7! m_axis_result_tdata [31:0] $end
$upscope $end
$scope module convert[2].converty $end
$var wire 1 . aclk $end
$var wire 1 0 s_axis_a_tvalid $end
$var wire 1 8! s_axis_a_tready $end
$var wire 32 9! s_axis_a_tdata [31:0] $end
$var wire 1 :! m_axis_result_tvalid $end
$var wire 1 ;! m_axis_result_tready $end
$var wire 32 <! m_axis_result_tdata [31:0] $end
$upscope $end
$scope module convert[3].convertx $end
$var wire 1 . aclk $end
$var wire 1 0 s_axis_a_tvalid $end
$var wire 1 =! s_axis_a_tready $end
$var wire 32 >! s_axis_a_tdata [31:0] $end
$var wire 1 ?! m_axis_result_tvalid $end
$var wire 1 @! m_axis_result_tready $end
$var wire 32 A! m_axis_result_tdata [31:0] $end
$upscope $end
$scope module convert[3].converty $end
$var wire 1 . aclk $end
$var wire 1 0 s_axis_a_tvalid $end
$var wire 1 B! s_axis_a_tready $end
$var wire 32 C! s_axis_a_tdata [31:0] $end
$var wire 1 D! m_axis_result_tvalid $end
$var wire 1 E! m_axis_result_tready $end
$var wire 32 F! m_axis_result_tdata [31:0] $end
$upscope $end
$upscope $end
$scope module tr_x $end
$var wire 1 . aclk $end
$var wire 1 G! s_axis_a_tvalid $end
$var wire 32 H! s_axis_a_tdata [31:0] $end
$var wire 32 I! s_axis_a_tuser [31:0] $end
$var wire 1 J! s_axis_a_tlast $end
$var wire 1 K! s_axis_b_tvalid $end
$var wire 32 L! s_axis_b_tdata [31:0] $end
$var wire 1 M! m_axis_result_tvalid $end
$var wire 32 N! m_axis_result_tdata [31:0] $end
$var wire 32 O! m_axis_result_tuser [31:0] $end
$var wire 1 P! m_axis_result_tlast $end
$upscope $end
$scope module tr_y $end
$var wire 1 . aclk $end
$var wire 1 Q! s_axis_a_tvalid $end
$var wire 32 R! s_axis_a_tdata [31:0] $end
$var wire 32 S! s_axis_a_tuser [31:0] $end
$var wire 1 T! s_axis_a_tlast $end
$var wire 1 U! s_axis_b_tvalid $end
$var wire 32 V! s_axis_b_tdata [31:0] $end
$var wire 1 W! m_axis_result_tvalid $end
$var wire 32 X! m_axis_result_tdata [31:0] $end
$var wire 32 Y! m_axis_result_tuser [31:0] $end
$var wire 1 Z! m_axis_result_tlast $end
$upscope $end
$scope begin Block247_26 $end
$var integer 32 [! i [31:0] $end
$upscope $end
$scope begin Block255_27 $end
$var integer 32 \! i [31:0] $end
$upscope $end
$scope begin Block286_28 $end
$var integer 32 ]! i [31:0] $end
$upscope $end
$upscope $end
$upscope $end
$upscope $end
$enddefinitions $end
#0
$dumpvars
bx !
0!!
bx "
1"!
b0 #
bx #!
b0 $
1$!
bx %
b0xxxxxxxxxx %!
bx &
0&!
bx '
1'!
bx (
bx (!
x)
1)!
0*
b0xxxxxxxxxxx *!
0+
0+!
0,
1,!
x-
bx -!
0.
1.!
x/
b0xxxxxxxxxx /!
x0
00!
bx 1
11!
bx 2
bx 2!
bx 3
13!
bx 4
b0xxxxxxxxxxx 4!
bx 5
05!
b0 6
16!
b0 7
bx 7!
b0 8
18!
x9
b0xxxxxxxxxx 9!
b0 :
0:!
x;
1;!
x<
bx <!
x=
1=!
bx >
b0xxxxxxxxxxx >!
bx ?
0?!
0@
1@!
0A
bx A!
bx B
1B!
bx C
b0xxxxxxxxxx C!
bx D
0D!
0E
1E!
0F
bx F!
xG
xG!
bx H
bx H!
xI
b0 I!
xJ
xJ!
xK
xK!
bx L
bx L!
b0 M
0M!
0N
bx N!
1O
b0 O!
1P
0P!
b0 Q
xQ!
b0 R
bx R!
b0 S
bx S!
bx T
xT!
b0 U
xU!
0V
bx V!
1W
0W!
1X
bx X!
b0 Y
b0 Y!
b0 Z
0Z!
b0 [
bx [!
bx \
bx \!
bx ]
bx ]!
bx ^
x_
0`
bx a
bx b
1c
0d
bx e
bx f
xg
0h
bx i
bx j
1k
0l
bx m
bx n
xo
0p
bx q
bx r
1s
0t
bx u
bx v
xw
0x
bx y
bx z
1{
0|
1}
b0xxxxxxxxxxx ~
$end
#5000
b0 !
b0 "
b100000000000000000000000 #!
b100000000000000000000000 (!
1,
b100000000000000000000000 -!
1.
b100000000000000000000000 2!
b100000000000000000000000 7!
b100000000000000000000000 <!
b100000000000000000000000 A!
b100000000000000000000000 F!
b0 N!
bx R
b0 X!
bx Z
b100000000000000000000000 ^
b100000000000000000000000 b
b100000000000000000000000 f
b100000000000000000000000 j
b100000000000000000000000 n
b100000000000000000000000 r
b100000000000000000000000 v
b100000000000000000000000 z
#10000
0,
1-
0.
1/
#15000
b1001110100000000000000000000000 #!
b1001110100000000000000000000000 (!
1,
b1001110100000000000000000000000 -!
1.
b1001110100000000000000000000000 2!
b0 5
b1001110100000000000000000000000 7!
b1001110100000000000000000000000 <!
b1001110100000000000000000000000 A!
b1001110100000000000000000000000 F!
b0 L
b0 T
b1001110100000000000000000000000 ^
b1001110100000000000000000000000 b
b1001110100000000000000000000000 f
b1001110100000000000000000000000 j
b1001110100000000000000000000000 n
b1001110100000000000000000000000 r
b1001110100000000000000000000000 v
b1001110100000000000000000000000 z
#20000
0,
0-
0.
0/
#25000
1,
1.
bx 6
bx 8
bx Q
b1100000011100000000000000000000001000000111000000000000000000000010000010010000000000000000000001100000011100000000000000000000001000000111000000000000000000000010000010010000000000000000000001100000101100000000000000000000001000001011000000000000000000000 R
bx S
bx Y
b1000000010000000000000000000000010000000100000000000000000000000000000000000000000000000000000001000000010000000000000000000000010000000100000000000000000000000000000000000000000000000000000001000000110000000000000000000000 Z
bx [
#30000
b1010000000100 %
b100 %!
b10100000000110 &
b1110000000100 '
b11100000000110 (
1)
b1010 *!
0,
0.
b110 /!
10
b1010000000100 1
b10100000000110 2
b1110000000100 3
b11100000000110 4
b111 4!
b100 9!
b1110 >!
b110 C!
b101 ]
b100 a
b1010 e
b110 i
b111 m
b100 q
b1110 u
b110 y
b101 ~
#35000
1,
1.
b1100000011100000000000000000000001000000111000000000000000000000010000010010000000000000000000001100000011100000000000000000000001000000111000000000000000000000010000010010000000000000000000001100000101100000000000000000000001000001011000000000000000000000 6
b1000000010000000000000000000000010000000100000000000000000000000000000000000000000000000000000001000000010000000000000000000000010000000100000000000000000000000000000000000000000000000000000001000000110000000000000000000000 8
09
b1100000011100000000000000000000001000000111000000000000000000000010000010010000000000000000000001100000011100000000000000000000001000000111000000000000000000000010000010010000000000000000000001100000101100000000000000000000001000001011000000000000000000000 Q
b1100000011100000000000000000000001000000111000000000000000000000010000010010000000000000000000001100000011100000000000000000000001000000111000000000000000000000010000010010000000000000000000001100000101100000000000000000000001000001011000000000000000000000 S
b1000000010000000000000000000000010000000100000000000000000000000000000000000000000000000000000001000000010000000000000000000000010000000100000000000000000000000000000000000000000000000000000001000000110000000000000000000000 Y
b1000000010000000000000000000000010000000100000000000000000000000000000000000000000000000000000001000000010000000000000000000000010000000100000000000000000000000000000000000000000000000000000001000000110000000000000000000000 [
b0 \
#40000
0)
0,
0.
00
#45000
b0 #!
b0 (!
1,
b0 -!
1.
b0 2!
b0 7!
b0 <!
b0 A!
b0 F!
b0 ^
b0 b
b0 f
b0 j
b0 n
b0 r
b0 v
b0 z
#50000
0,
0.
#55000
1,
1.
#60000
0,
0.
#65000
1,
1.
#70000
0,
0.
#75000
1,
1.
#80000
0,
0.
#85000
1,
1.
#90000
0,
0.
#95000
b100000000000000000000000 !
1!!
b100000000000000000000000 "
b1000000101000000000000000000000 #!
1&!
b1000000100000000000000000000000 (!
1+!
1,
b1000001001000000000000000000000 -!
1.
10!
b1000000110000000000000000000000 2!
15!
b1000000111000000000000000000000 7!
1:!
b1000000100000000000000000000000 <!
1?!
b1000001011000000000000000000000 A!
1D!
b1000000110000000000000000000000 F!
b100000000000000000000000 N!
b100000000000000000000000 X!
b1000000101000000000000000000000 ^
1`
b1000000100000000000000000000000 b
1d
b1000001001000000000000000000000 f
1h
b1000000110000000000000000000000 j
1l
b1000000111000000000000000000000 n
1p
b1000000100000000000000000000000 r
1t
b1000001011000000000000000000000 v
1x
b1000000110000000000000000000000 z
1|
#100000
0,
0.
#105000
b0 !
0!!
b0 "
0&!
0+!
1,
1.
00!
05!
19
0:!
0?!
0D!
b0 N!
b0 X!
b1111 \
0`
0d
0h
0l
0p
0t
0x
0|
#110000
0,
0.
#115000
1,
1.
b1 7
09
0<
0I
1J
b0 \
#120000
0,
0.
#125000
1,
1.
b10 7
0G
b100 H
b10 [!
#130000
0,
0.
#135000
1,
1.
b111111111111111111111111 :
0;
1<
1=
b1000000101000000000000000000000 >
b0 ?
b1000000100000000000000000000000 B
b1100000011100000000000000000000 C
b100000011100000000000000000000 D
1G!
b1000000101000000000000000000000 H!
b111111111111111111111111 I!
1K!
b0 L!
1Q!
b1000000100000000000000000000000 R!
b100000011100000000000000000000 S!
1U!
b1100000011100000000000000000000 V!
b1 ]!
#140000
0,
0.
#145000
1,
1.
b11 7
b111111110000000000000000 :
1;
0=
b1000001001000000000000000000000 >
b1000000110000000000000000000000 B
0G!
b1000001001000000000000000000000 H!
b111111110000000000000000 I!
0K!
0Q!
b1000000110000000000000000000000 R!
0U!
#150000
0,
0.
#155000
1,
1.
b10 7
0<
b10 H
#160000
0,
0.
#165000
1,
1.
b111111111111111111111111 :
0;
1<
1=
b1000001001000000000000000000000 ?
b11000000111000000000000000000000 C
b1000000111000000000000000000000 D
1G!
b111111111111111111111111 I!
1K!
b1000001001000000000000000000000 L!
1Q!
b1000000111000000000000000000000 S!
1U!
b11000000111000000000000000000000 V!
b1 ]!
#170000
0,
0.
#175000
1,
1.
b11 7
b111111110000000000000000 :
1;
0=
0G!
b111111110000000000000000 I!
0K!
0Q!
0U!
#180000
0,
0.
#185000
1,
1.
b10 7
0<
b1 H
#190000
0,
0.
#195000
1,
1.
b111111111111111111111111 :
0;
1<
1=
b11000001011000000000000000000000 C
b1000001011000000000000000000000 D
1G!
b111111111111111111111111 I!
1K!
1Q!
b1000001011000000000000000000000 S!
1U!
b11000001011000000000000000000000 V!
b1 ]!
#200000
0,
0.
#205000
1,
1.
b11 7
b111111110000000000000000 :
1;
0=
0G!
b111111110000000000000000 I!
0K!
0Q!
0U!
#210000
0,
0.
#215000
1,
1.
b100 7
0<
b0 H
#220000
0,
0.
#225000
1,
1.
b1 5
b0 7
b1 L
b1 T
#230000
0,
0.
#235000
1,
1.
b1 7
b1100000011100000000000000000000001000000111000000000000000000000010000010010000000000000000000001100000101100000000000000000000001000001011000000000000000000000000000000000000000000000000000001100000101100000000000000000000001000001011000000000000000000000 R
b1000000010000000000000000000000010000000100000000000000000000000000000000000000000000000000000001000000110000000000000000000000000000000000000000000000000000000000000000000000000000000000000001000000110000000000000000000000 Z
#240000
0,
0.
#245000
b1000000101000000000000000000000 !
b1100000011100000000000000000000 "
b100000011100000000000000000000 #
b111111111111111111111111 $
1*
1,
1.
b1100000011100000000000000000000001000000111000000000000000000000010000010010000000000000000000001100000101100000000000000000000001000001011000000000000000000000000000000000000000000000000000001100000101100000000000000000000001000001011000000000000000000000 6
b1000000010000000000000000000000010000000100000000000000000000000000000000000000000000000000000001000000110000000000000000000000000000000000000000000000000000000000000000000000000000000000000001000000110000000000000000000000 8
1@
1E
1G
1M!
b1000000101000000000000000000000 N!
b111111111111111111111111 O!
b1100000011100000000000000000000001000000111000000000000000000000010000010010000000000000000000001100000101100000000000000000000001000001011000000000000000000000000000000000000000000000000000001100000101100000000000000000000001000001011000000000000000000000 Q
b1100000011100000000000000000000001000000111000000000000000000000010000010010000000000000000000001100000101100000000000000000000001000001011000000000000000000000000000000000000000000000000000001100000101100000000000000000000001000001011000000000000000000000 S
1W!
b1100000011100000000000000000000 X!
b1000000010000000000000000000000010000000100000000000000000000000000000000000000000000000000000001000000110000000000000000000000000000000000000000000000000000000000000000000000000000000000000001000000110000000000000000000000 Y
b100000011100000000000000000000 Y!
b1000000010000000000000000000000010000000100000000000000000000000000000000000000000000000000000001000000110000000000000000000000000000000000000000000000000000000000000000000000000000000000000001000000110000000000000000000000 [
#250000
0,
0.
#255000
b1000001001000000000000000000000 !
b111111110000000000000000 $
0*
1,
1.
b10 7
0@
0E
0G
b100 H
0M!
b1000001001000000000000000000000 N!
b111111110000000000000000 O!
0W!
b10 [!
#260000
0,
0.
#265000
1,
1.
b111111111111111111111111 :
0;
1<
1=
b1000000101000000000000000000000 >
b0 ?
b1000000100000000000000000000000 B
b1100000011100000000000000000000 C
b100000011100000000000000000000 D
1G!
b1000000101000000000000000000000 H!
b111111111111111111111111 I!
1K!
b0 L!
1Q!
b1000000100000000000000000000000 R!
b100000011100000000000000000000 S!
1U!
b1100000011100000000000000000000 V!
b1 ]!
#270000
0,
0.
#275000
b1000001101000000000000000000000 !
b10111111100000000000000000000000 "
b1000000111000000000000000000000 #
b111111111111111111111111 $
1*
1,
1.
b11 7
b111111110000000000000000 :
1;
0=
b1000001001000000000000000000000 >
1@
b1000000110000000000000000000000 B
1E
0G!
b1000001001000000000000000000000 H!
b111111110000000000000000 I!
0K!
1M!
b1000001101000000000000000000000 N!
b111111111111111111111111 O!
0Q!
b1000000110000000000000000000000 R!
0U!
1W!
b10111111100000000000000000000000 X!
b1000000111000000000000000000000 Y!
#280000
0,
0.
#285000
b111111110000000000000000 $
0*
1,
1.
b10 7
0<
0@
0E
b10 H
0M!
b111111110000000000000000 O!
0W!
#290000
0,
0.
#295000
1,
1.
b111111111111111111111111 :
0;
1<
1=
b1000001001000000000000000000000 ?
b11000001011000000000000000000000 C
b1000001011000000000000000000000 D
1G!
b111111111111111111111111 I!
1K!
b1000001001000000000000000000000 L!
1Q!
b1000001011000000000000000000000 S!
1U!
b11000001011000000000000000000000 V!
b1 ]!
#300000
0,
0.
#305000
b11000001000000000000000000000000 "
b1000001011000000000000000000000 #
b111111111111111111111111 $
1*
1,
1.
b11 7
b111111110000000000000000 :
1;
0=
1@
1E
0G!
b111111110000000000000000 I!
0K!
1M!
b111111111111111111111111 O!
0Q!
0U!
1W!
b11000001000000000000000000000000 X!
b1000001011000000000000000000000 Y!
#310000
0,
0.
#315000
b111111110000000000000000 $
0*
1,
1.
b10 7
0<
0@
0E
b1 H
0M!
b111111110000000000000000 O!
0W!
#320000
0,
0.
#325000
1,
1.
b111111111111111111111111 :
0;
1<
1=
b0 ?
1G!
b111111111111111111111111 I!
1K!
b0 L!
1Q!
1U!
b1 ]!
#330000
0,
0.
#335000
1,
1.
b11 7
b111111110000000000000000 :
1;
0=
0G!
b111111110000000000000000 I!
0K!
0Q!
0U!
#340000
0,
0.
#345000
1,
1.
b100 7
0<
b0 H
#350000
0,
0.
#355000
1,
1.
b10 5
b0 7
b10 L
b10 T
#360000
0,
0.
#365000
1,
1.
b1 7
b1000001011000000000000000000000010000010010000000000000000000000000000000000000000000000000000001000001011000000000000000000000010000010010000000000000000000001100000011100000000000000000000001000001101010000000000000000000 R
b100000001000000000000000000000001000000010000000000000000000000010000000100000000000000000000000100000001000000000000000000000001000000010000000000000000000000010000000100000000000000000000000100000001000000000000000000000001000000110000000000000000000000 Z
#370000
0,
0.
#375000
b1000000101000000000000000000000 !
b1100000011100000000000000000000 "
b100000011100000000000000000000 #
b111111111111111111111111 $
1*
1,
1.
b1000001011000000000000000000000010000010010000000000000000000000000000000000000000000000000000001000001011000000000000000000000010000010010000000000000000000001100000011100000000000000000000001000001101010000000000000000000 6
b100000001000000000000000000000001000000010000000000000000000000010000000100000000000000000000000100000001000000000000000000000001000000010000000000000000000000010000000100000000000000000000000100000001000000000000000000000001000000110000000000000000000000 8
1@
1E
1G
1M!
b1000000101000000000000000000000 N!
b111111111111111111111111 O!
b1000001011000000000000000000000010000010010000000000000000000000000000000000000000000000000000001000001011000000000000000000000010000010010000000000000000000001100000011100000000000000000000001000001101010000000000000000000 Q
b1000001011000000000000000000000010000010010000000000000000000000000000000000000000000000000000001000001011000000000000000000000010000010010000000000000000000001100000011100000000000000000000001000001101010000000000000000000 S
1W!
b1100000011100000000000000000000 X!
b100000001000000000000000000000001000000010000000000000000000000010000000100000000000000000000000100000001000000000000000000000001000000010000000000000000000000010000000100000000000000000000000100000001000000000000000000000001000000110000000000000000000000 Y
b100000011100000000000000000000 Y!
b100000001000000000000000000000001000000010000000000000000000000010000000100000000000000000000000100000001000000000000000000000001000000010000000000000000000000010000000100000000000000000000000100000001000000000000000000000001000000110000000000000000000000 [
#380000
0,
0.
#385000
b1000001001000000000000000000000 !
b111111110000000000000000 $
0*
1,
1.
b10 7
0@
0E
0G
b100 H
0M!
b1000001001000000000000000000000 N!
b111111110000000000000000 O!
0W!
b10 [!
#390000
0,
0.
#395000
1,
1.
b111111111111111111111111 :
0;
1<
1=
b1000000101000000000000000000000 >
b1000000100000000000000000000000 B
b0 C
b100000101100000000000000000000 D
1G!
b1000000101000000000000000000000 H!
b111111111111111111111111 I!
1K!
1Q!
b1000000100000000000000000000000 R!
b100000101100000000000000000000 S!
1U!
b0 V!
b1 ]!
#400000
0,
0.
#405000
b1000001101000000000000000000000 !
b11000001000000000000000000000000 "
b1000001011000000000000000000000 #
b111111111111111111111111 $
1*
1,
1.
b11 7
b111111110000000000000000 :
1;
0=
b1000001001000000000000000000000 >
1@
b1000000110000000000000000000000 B
1E
0G!
b1000001001000000000000000000000 H!
b111111110000000000000000 I!
0K!
1M!
b1000001101000000000000000000000 N!
b111111111111111111111111 O!
0Q!
b1000000110000000000000000000000 R!
0U!
1W!
b11000001000000000000000000000000 X!
b1000001011000000000000000000000 Y!
#410000
0,
0.
#415000
b111111110000000000000000 $
0*
1,
1.
b10 7
0<
0@
0E
b10 H
0M!
b111111110000000000000000 O!
0W!
#420000
0,
0.
#425000
1,
1.
b111111111111111111111111 :
0;
1<
1=
b1000001001000000000000000000000 ?
b1000001011000000000000000000000 D
1G!
b111111111111111111111111 I!
1K!
b1000001001000000000000000000000 L!
1Q!
b1000001011000000000000000000000 S!
1U!
b1 ]!
#430000
0,
0.
#435000
b1000001001000000000000000000000 !
b111111111111111111111111 $
1*
1,
1.
b11 7
b111111110000000000000000 :
1;
0=
1@
1E
0G!
b111111110000000000000000 I!
0K!
1M!
b1000001001000000000000000000000 N!
b111111111111111111111111 O!
0Q!
0U!
1W!
#440000
0,
0.
#445000
b111111110000000000000000 $
0*
1,
1.
b10 7
0<
0@
0E
b1 H
0M!
b111111110000000000000000 O!
0W!
#450000
0,
0.
#455000
1,
1.
b111111111111111111111111 :
0;
1<
1=
b11000000111000000000000000000000 C
b1000001101010000000000000000000 D
1G!
b111111111111111111111111 I!
1K!
1Q!
b1000001101010000000000000000000 S!
1U!
b11000000111000000000000000000000 V!
b1 ]!
#460000
0,
0.
#465000
1,
1.
b11 7
b111111110000000000000000 :
1;
0=
0G!
b111111110000000000000000 I!
0K!
0Q!
0U!
#470000
0,
0.
#475000
1,
1.
b100 7
0<
b0 H
#480000
0,
0.
#485000
1,
1.
b11 5
b0 7
b11 L
b11 T
#490000
0,
0.
#495000
1,
1.
b1 7
b1000001011000000000000000000000010000010010000000000000000000001100000011100000000000000000000001000001101010000000000000000000000000000000000000000000000000001100000011100000000000000000000001000001101010000000000000000000 R
b100000001000000000000000000000001000000010000000000000000000000010000000100000000000000000000000100000001000000000000000000000001000000110000000000000000000000000000000000000000000000000000000100000001000000000000000000000001000000110000000000000000000000 Z
#500000
0,
0.
#505000
b1000000101000000000000000000000 !
b1000000100000000000000000000000 "
b100000101100000000000000000000 #
b111111111111111111111111 $
1*
1,
1.
b1000001011000000000000000000000010000010010000000000000000000001100000011100000000000000000000001000001101010000000000000000000000000000000000000000000000000001100000011100000000000000000000001000001101010000000000000000000 6
b100000001000000000000000000000001000000010000000000000000000000010000000100000000000000000000000100000001000000000000000000000001000000110000000000000000000000000000000000000000000000000000000100000001000000000000000000000001000000110000000000000000000000 8
1@
1E
1G
1M!
b1000000101000000000000000000000 N!
b111111111111111111111111 O!
b1000001011000000000000000000000010000010010000000000000000000001100000011100000000000000000000001000001101010000000000000000000000000000000000000000000000000001100000011100000000000000000000001000001101010000000000000000000 Q
b1000001011000000000000000000000010000010010000000000000000000001100000011100000000000000000000001000001101010000000000000000000000000000000000000000000000000001100000011100000000000000000000001000001101010000000000000000000 S
1W!
b1000000100000000000000000000000 X!
b100000001000000000000000000000001000000010000000000000000000000010000000100000000000000000000000100000001000000000000000000000001000000110000000000000000000000000000000000000000000000000000000100000001000000000000000000000001000000110000000000000000000000 Y
b100000101100000000000000000000 Y!
b100000001000000000000000000000001000000010000000000000000000000010000000100000000000000000000000100000001000000000000000000000001000000110000000000000000000000000000000000000000000000000000000100000001000000000000000000000001000000110000000000000000000000 [
#510000
0,
0.
#515000
b1000001001000000000000000000000 !
b1000000110000000000000000000000 "
b111111110000000000000000 $
0*
1,
1.
b10 7
0@
0E
0G
b100 H
0M!
b1000001001000000000000000000000 N!
b111111110000000000000000 O!
0W!
b1000000110000000000000000000000 X!
b10 [!
#520000
0,
0.
#525000
1,
1.
b111111111111111111111111 :
0;
1<
1=
b1000000101000000000000000000000 >
b0 ?
b1000000100000000000000000000000 B
b0 C
b100000101100000000000000000000 D
1G!
b1000000101000000000000000000000 H!
b111111111111111111111111 I!
1K!
b0 L!
1Q!
b1000000100000000000000000000000 R!
b100000101100000000000000000000 S!
1U!
b0 V!
b1 ]!
#530000
0,
0.
#535000
b1000001101000000000000000000000 !
b1000001011000000000000000000000 #
b111111111111111111111111 $
1*
1,
1.
b11 7
b111111110000000000000000 :
1;
0=
b1000001001000000000000000000000 >
1@
b1000000110000000000000000000000 B
1E
0G!
b1000001001000000000000000000000 H!
b111111110000000000000000 I!
0K!
1M!
b1000001101000000000000000000000 N!
b111111111111111111111111 O!
0Q!
b1000000110000000000000000000000 R!
0U!
1W!
b1000001011000000000000000000000 Y!
#540000
0,
0.
#545000
b111111110000000000000000 $
0*
1,
1.
b10 7
0<
0@
0E
b10 H
0M!
b111111110000000000000000 O!
0W!
#550000
0,
0.
#555000
1,
1.
b111111111111111111111111 :
0;
1<
1=
b1000001001000000000000000000000 ?
b11000000111000000000000000000000 C
b1000001101010000000000000000000 D
1G!
b111111111111111111111111 I!
1K!
b1000001001000000000000000000000 L!
1Q!
b1000001101010000000000000000000 S!
1U!
b11000000111000000000000000000000 V!
b1 ]!
#560000
0,
0.
#565000
b10111111100000000000000000000000 "
b1000001101010000000000000000000 #
b111111111111111111111111 $
1*
1,
1.
b11 7
b111111110000000000000000 :
1;
0=
1@
1E
0G!
b111111110000000000000000 I!
0K!
1M!
b111111111111111111111111 O!
0Q!
0U!
1W!
b10111111100000000000000000000000 X!
b1000001101010000000000000000000 Y!
#570000
0,
0.
#575000
b111111110000000000000000 $
0*
1,
1.
b10 7
0<
0@
0E
b1 H
0M!
b111111110000000000000000 O!
0W!
#580000
0,
0.
#585000
1,
1.
b111111111111111111111111 :
0;
1<
1=
b0 ?
1G!
b111111111111111111111111 I!
1K!
b0 L!
1Q!
1U!
b1 ]!
#590000
0,
0.
#595000
1,
1.
b11 7
b111111110000000000000000 :
1;
0=
0G!
b111111110000000000000000 I!
0K!
0Q!
0U!
#600000
0,
0.
#605000
1,
1.
b100 7
0<
b0 H
#610000
0,
0.
#615000
1,
1.
b100 5
b0 7
b100 L
b100 T
#620000
0,
0.
