final_project/rtp.vcd
$date
	Tue Dec 12 23:29:18 2023
$end
$version
	Icarus Verilog
$end
$timescale
	1ps
$end
$scope module rtp_tb $end
$var wire 1 ! valid_out $end
$var wire 1 " ready_for_data $end
$var wire 8 # data_out [7:0] $end
$var wire 16 $ bit_counter [15:0] $end
$var reg 1 % clk_in $end
$var reg 1 & data_in $end
$var reg 1 ' data_valid_in $end
$var reg 1 ( marker_in $end
$var reg 16 ) payload_size [15:0] $end
$var reg 1 * prepare_for_data $end
$var reg 1 + rst_in $end
$var reg 32 , rtp_timestamp [31:0] $end
$scope module testing $end
$var wire 1 % clk_in $end
$var wire 1 & data_in $end
$var wire 1 ' data_valid_in $end
$var wire 16 - payload_size [15:0] $end
$var wire 1 * prepare_for_data $end
$var wire 1 + rst_in $end
$var wire 1 ( rtp_marker_in $end
$var wire 32 . rtp_timestamp [31:0] $end
$var parameter 32 / DESTINATION_IP $end
$var parameter 34 0 FULL_HEADER_SIZE $end
$var parameter 2 1 IDLE $end
$var parameter 32 2 IPV4_HEADER_SIZE $end
$var parameter 2 3 RECEIVE $end
$var parameter 32 4 RTP_HEADER_SIZE $end
$var parameter 2 5 SEND_HEADER $end
$var parameter 2 6 SEND_PAYLOAD $end
$var parameter 32 7 UDP_HEADER_SIZE $end
$var parameter 2 8 VERSION $end
$var reg 16 9 IPV4_PACKET_LENGTH [15:0] $end
$var reg 32 : SSRC [31:0] $end
$var reg 16 ; UDP_PACKET_LENGTH [15:0] $end
$var reg 16 < bit_counter [15:0] $end
$var reg 4 = byte_counter [3:0] $end
$var reg 8 > data_out [7:0] $end
$var reg 320 ? full_header [319:0] $end
$var reg 16 @ indexer [15:0] $end
$var reg 160 A ipv4_header [159:0] $end
$var reg 16 B read_payload_size [15:0] $end
$var reg 1 " ready_for_data $end
$var reg 96 C rtp_header [95:0] $end
$var reg 16 D rtp_seq [15:0] $end
$var reg 2 E state [1:0] $end
$var reg 64 F udp_header [63:0] $end
$var reg 1 ! valid_out $end
$upscope $end
$upscope $end
$enddefinitions $end
$comment Show the parameter values. $end
$dumpall
b10 8
b1000000 7
b11 6
b1 5
b1100000 4
b10 3
b10100000 2
b0 1
b101000000 0
b1010000000000000000000000001 /
$end
#0
$dumpvars
bx F
bx E
bx D
bx C
bx B
bx A
bx @
bx ?
bx >
bx =
bx <
bx ;
b10010010000101010011010100100100 :
bx 9
bx .
bx -
bx ,
0+
0*
bx )
x(
0'
0&
0%
bx $
bx #
x"
x!
$end
#5000
1%
#10000
0%
1+
#15000
b101111010000001 D
0"
0!
b0 E
1%
#20000
b101010 9
b10110 ;
0%
1(
b11001000 ,
b11001000 .
b10000 )
b10000 -
1*
0+
#25000
b100111111 @
b100010100000000000000000010101001000000000000000000011100010001000000000000000000001010000000000000000000000001000010100000000000000000000000011111111111111111111111111111111100000000000101100000000000000000100000001001111101011110100000010000000000000000000000001100100010010010000101010011010100100100 ?
b10001010000000000000000001010100100000000000000000001110001000100000000000000000000101000000000000000000000000100001010000000000000000000000001 A
b1111111111111111111111111111111100000000000101100000000000000000 F
b10000 B
b100000001001111101011110100000010000000000000000000000001100100010010010000101010011010100100100 C
b1 E
b0 $
b0 <
1%
#30000
0%
#35000
b100110111 @
1!
b1000 $
b1000 <
b0 #
b0 >
1%
#40000
0%
#45000
b100101111 @
b10000 $
b10000 <
1%
#50000
0%
#55000
b100100111 @
b11000 $
b11000 <
b1000101 #
b1000101 >
1%
#60000
0%
#65000
b100011111 @
b100000 $
b100000 <
b0 #
b0 >
1%
#70000
0%
#75000
b100010111 @
b101000 $
b101000 <
1%
#80000
0%
#85000
b100001111 @
b110000 $
b110000 <
b101010 #
b101010 >
1%
#90000
0%
#95000
b100000111 @
b111000 $
b111000 <
b1000000 #
b1000000 >
1%
#100000
0%
#105000
b11111111 @
b1000000 $
b1000000 <
b0 #
b0 >
1%
#110000
0%
#115000
b11110111 @
b1001000 $
b1001000 <
b111 #
b111 >
1%
#120000
0%
#125000
b11101111 @
b1010000 $
b1010000 <
b10001 #
b10001 >
1%
#130000
0%
#135000
b11100111 @
b1011000 $
b1011000 <
b0 #
b0 >
1%
#140000
0%
#145000
b11011111 @
b1100000 $
b1100000 <
1%
#150000
0%
#155000
b11010111 @
b1101000 $
b1101000 <
b1010 #
b1010 >
1%
#160000
0%
#165000
b11001111 @
b1110000 $
b1110000 <
b0 #
b0 >
1%
#170000
0%
#175000
b11000111 @
b1111000 $
b1111000 <
1%
#180000
0%
#185000
b10111111 @
b10000000 $
b10000000 <
b1 #
b1 >
1%
#190000
0%
#195000
b10110111 @
b10001000 $
b10001000 <
b1010 #
b1010 >
1%
#200000
0%
#205000
b10101111 @
b10010000 $
b10010000 <
b0 #
b0 >
1%
#210000
0%
#215000
b10100111 @
b10011000 $
b10011000 <
1%
#220000
0%
#225000
b10011111 @
b10100000 $
b10100000 <
b1 #
b1 >
1%
#230000
0%
#235000
b10010111 @
b10101000 $
b10101000 <
b11111111 #
b11111111 >
1%
#240000
0%
#245000
b10001111 @
b10110000 $
b10110000 <
1%
#250000
0%
#255000
b10000111 @
b10111000 $
b10111000 <
1%
#260000
0%
#265000
b1111111 @
b11000000 $
b11000000 <
1%
#270000
0%
#275000
b1110111 @
b11001000 $
b11001000 <
b0 #
b0 >
1%
#280000
0%
#285000
b1101111 @
b11010000 $
b11010000 <
b10110 #
b10110 >
1%
#290000
0%
#295000
b1100111 @
b11011000 $
b11011000 <
b0 #
b0 >
1%
#300000
0%
#305000
b1011111 @
b11100000 $
b11100000 <
1%
#310000
0%
#315000
b1010111 @
b11101000 $
b11101000 <
b10000000 #
b10000000 >
1%
#320000
0%
#325000
b1001111 @
b11110000 $
b11110000 <
b10011111 #
b10011111 >
1%
#330000
0%
#335000
b1000111 @
b11111000 $
b11111000 <
b1011110 #
b1011110 >
1%
#340000
0%
#345000
b111111 @
b100000000 $
b100000000 <
b10000001 #
b10000001 >
1%
#350000
0%
#355000
b110111 @
b100001000 $
b100001000 <
b0 #
b0 >
1%
#360000
0%
#365000
b101111 @
b100010000 $
b100010000 <
1%
#370000
0%
#375000
b100111 @
b100011000 $
b100011000 <
1%
#380000
0%
#385000
b11111 @
b100100000 $
b100100000 <
b11001000 #
b11001000 >
1%
#390000
0%
#395000
b10111 @
b100101000 $
b100101000 <
b10010010 #
b10010010 >
1%
#400000
0%
#405000
b1111 @
b100110000 $
b100110000 <
b10101 #
b10101 >
1%
#410000
0%
#415000
b111 @
b100111000 $
b100111000 <
b110101 #
b110101 >
1%
#420000
0%
#425000
b0 =
b0 #
b0 >
0!
1"
b11 E
1%
